\beamer@endinputifotherversion {3.36pt}
\headcommand {\slideentry {0}{0}{1}{1/1}{}{0}}
\headcommand {\beamer@framepages {1}{1}}
\headcommand {\slideentry {0}{0}{2}{2/2}{}{0}}
\headcommand {\beamer@framepages {2}{2}}
\headcommand {\sectionentry {1}{Problem Definition}{3}{Problem Definition}{0}}
\headcommand {\beamer@sectionpages {1}{2}}
\headcommand {\beamer@subsectionpages {1}{2}}
\headcommand {\slideentry {1}{0}{1}{3/3}{}{0}}
\headcommand {\beamer@framepages {3}{3}}
\headcommand {\slideentry {1}{0}{2}{4/4}{}{0}}
\headcommand {\beamer@framepages {4}{4}}
\headcommand {\beamer@subsectionentry {0}{1}{1}{5}{Decision Problem}}\headcommand {\beamer@subsectionpages {3}{4}}
\headcommand {\slideentry {1}{1}{1}{5/5}{Decision Problem}{0}}
\headcommand {\beamer@framepages {5}{5}}
\headcommand {\beamer@subsectionentry {0}{1}{2}{6}{Computational Problem}}\headcommand {\beamer@subsectionpages {5}{5}}
\headcommand {\slideentry {1}{2}{1}{6/6}{Computational Problem}{0}}
\headcommand {\beamer@framepages {6}{6}}
\headcommand {\beamer@subsectionentry {0}{1}{3}{7}{Optimisation Problem}}\headcommand {\beamer@subsectionpages {6}{6}}
\headcommand {\slideentry {1}{3}{1}{7/7}{Optimisation Problem}{0}}
\headcommand {\beamer@framepages {7}{7}}
\headcommand {\sectionentry {2}{Testing Methodology}{8}{Testing Methodology}{0}}
\headcommand {\beamer@sectionpages {3}{7}}
\headcommand {\beamer@subsectionpages {7}{7}}
\headcommand {\slideentry {2}{0}{1}{8/8}{}{0}}
\headcommand {\beamer@framepages {8}{8}}
\headcommand {\sectionentry {3}{Random Instances Sampling Strategy}{9}{Random Instances Sampling Strategy}{0}}
\headcommand {\beamer@sectionpages {8}{8}}
\headcommand {\beamer@subsectionpages {8}{8}}
\headcommand {\slideentry {3}{0}{1}{9/9}{}{0}}
\headcommand {\beamer@framepages {9}{9}}
\headcommand {\sectionentry {4}{Solutions}{10}{Solutions}{0}}
\headcommand {\beamer@sectionpages {9}{9}}
\headcommand {\beamer@subsectionpages {9}{9}}
\headcommand {\slideentry {4}{0}{1}{10/10}{}{0}}
\headcommand {\beamer@framepages {10}{10}}
\headcommand {\beamer@subsectionentry {0}{4}{1}{11}{Exhaustive Search}}\headcommand {\beamer@subsectionpages {10}{10}}
\headcommand {\slideentry {4}{1}{1}{11/11}{Exhaustive Search}{0}}
\headcommand {\beamer@framepages {11}{11}}
\headcommand {\slideentry {4}{1}{2}{12/12}{Exhaustive Search}{0}}
\headcommand {\beamer@framepages {12}{12}}
\headcommand {\slideentry {4}{1}{3}{13/13}{Exhaustive Search}{0}}
\headcommand {\beamer@framepages {13}{13}}
\headcommand {\slideentry {4}{1}{4}{14/14}{Exhaustive Search}{0}}
\headcommand {\beamer@framepages {14}{14}}
\headcommand {\slideentry {4}{1}{5}{15/15}{Exhaustive Search}{0}}
\headcommand {\beamer@framepages {15}{15}}
\headcommand {\slideentry {4}{1}{6}{16/16}{Exhaustive Search}{0}}
\headcommand {\beamer@framepages {16}{16}}
\headcommand {\slideentry {4}{1}{7}{17/17}{Exhaustive Search}{0}}
\headcommand {\beamer@framepages {17}{17}}
\headcommand {\slideentry {4}{1}{8}{18/18}{Exhaustive Search}{0}}
\headcommand {\beamer@framepages {18}{18}}
\headcommand {\beamer@subsectionentry {0}{4}{2}{19}{Dynamic Programming}}\headcommand {\beamer@subsectionpages {11}{18}}
\headcommand {\slideentry {4}{2}{1}{19/19}{Dynamic Programming}{0}}
\headcommand {\beamer@framepages {19}{19}}
\headcommand {\slideentry {4}{2}{2}{20/20}{Dynamic Programming}{0}}
\headcommand {\beamer@framepages {20}{20}}
\headcommand {\slideentry {4}{2}{3}{21/21}{Dynamic Programming}{0}}
\headcommand {\beamer@framepages {21}{21}}
\headcommand {\slideentry {4}{2}{4}{22/22}{Dynamic Programming}{0}}
\headcommand {\beamer@framepages {22}{22}}
\headcommand {\slideentry {4}{2}{5}{23/23}{Dynamic Programming}{0}}
\headcommand {\beamer@framepages {23}{23}}
\headcommand {\slideentry {4}{2}{6}{24/24}{Dynamic Programming}{0}}
\headcommand {\beamer@framepages {24}{24}}
\headcommand {\slideentry {4}{2}{7}{25/25}{Dynamic Programming}{0}}
\headcommand {\beamer@framepages {25}{25}}
\headcommand {\beamer@subsectionentry {0}{4}{3}{26}{Greedy}}\headcommand {\beamer@subsectionpages {19}{25}}
\headcommand {\slideentry {4}{3}{1}{26/26}{Greedy}{0}}
\headcommand {\beamer@framepages {26}{26}}
\headcommand {\slideentry {4}{3}{2}{27/27}{Greedy}{0}}
\headcommand {\beamer@framepages {27}{27}}
\headcommand {\slideentry {4}{3}{3}{28/28}{Greedy}{0}}
\headcommand {\beamer@framepages {28}{28}}
\headcommand {\slideentry {4}{3}{4}{29/29}{Greedy}{0}}
\headcommand {\beamer@framepages {29}{29}}
\headcommand {\slideentry {4}{3}{5}{30/30}{Greedy}{0}}
\headcommand {\beamer@framepages {30}{30}}
\headcommand {\slideentry {4}{3}{6}{31/31}{Greedy}{0}}
\headcommand {\beamer@framepages {31}{31}}
\headcommand {\slideentry {4}{3}{7}{32/32}{Greedy}{0}}
\headcommand {\beamer@framepages {32}{32}}
\headcommand {\slideentry {4}{3}{8}{33/33}{Greedy}{0}}
\headcommand {\beamer@framepages {33}{33}}
\headcommand {\slideentry {4}{3}{9}{34/34}{Greedy}{0}}
\headcommand {\beamer@framepages {34}{34}}
\headcommand {\slideentry {4}{3}{10}{35/35}{Greedy}{0}}
\headcommand {\beamer@framepages {35}{35}}
\headcommand {\beamer@subsectionentry {0}{4}{4}{36}{GRASP}}\headcommand {\beamer@subsectionpages {26}{35}}
\headcommand {\slideentry {4}{4}{1}{36/36}{GRASP}{0}}
\headcommand {\beamer@framepages {36}{36}}
\headcommand {\slideentry {4}{4}{2}{37/37}{GRASP}{0}}
\headcommand {\beamer@framepages {37}{37}}
\headcommand {\slideentry {4}{4}{3}{38/38}{GRASP}{0}}
\headcommand {\beamer@framepages {38}{38}}
\headcommand {\slideentry {4}{4}{4}{39/39}{GRASP}{0}}
\headcommand {\beamer@framepages {39}{39}}
\headcommand {\slideentry {4}{4}{5}{40/40}{GRASP}{0}}
\headcommand {\beamer@framepages {40}{40}}
\headcommand {\slideentry {4}{4}{6}{41/41}{GRASP}{0}}
\headcommand {\beamer@framepages {41}{41}}
\headcommand {\slideentry {4}{4}{7}{42/42}{GRASP}{0}}
\headcommand {\beamer@framepages {42}{42}}
\headcommand {\slideentry {4}{4}{8}{43/43}{GRASP}{0}}
\headcommand {\beamer@framepages {43}{43}}
\headcommand {\slideentry {4}{4}{9}{44/44}{GRASP}{0}}
\headcommand {\beamer@framepages {44}{44}}
\headcommand {\slideentry {4}{4}{10}{45/45}{GRASP}{0}}
\headcommand {\beamer@framepages {45}{45}}
\headcommand {\slideentry {4}{4}{11}{46/46}{GRASP}{0}}
\headcommand {\beamer@framepages {46}{46}}
\headcommand {\slideentry {4}{4}{12}{47/47}{GRASP}{0}}
\headcommand {\beamer@framepages {47}{47}}
\headcommand {\slideentry {4}{4}{13}{48/48}{GRASP}{0}}
\headcommand {\beamer@framepages {48}{48}}
\headcommand {\beamer@subsectionentry {0}{4}{5}{49}{Iterative Improvement}}\headcommand {\beamer@subsectionpages {36}{48}}
\headcommand {\slideentry {4}{5}{1}{49/49}{Iterative Improvement}{0}}
\headcommand {\beamer@framepages {49}{49}}
\headcommand {\slideentry {4}{5}{2}{50/50}{Iterative Improvement}{0}}
\headcommand {\beamer@framepages {50}{50}}
\headcommand {\slideentry {4}{5}{3}{51/51}{Iterative Improvement}{0}}
\headcommand {\beamer@framepages {51}{51}}
\headcommand {\slideentry {4}{5}{4}{52/52}{Iterative Improvement}{0}}
\headcommand {\beamer@framepages {52}{52}}
\headcommand {\slideentry {4}{5}{5}{53/53}{Iterative Improvement}{0}}
\headcommand {\beamer@framepages {53}{53}}
\headcommand {\slideentry {4}{5}{6}{54/54}{Iterative Improvement}{0}}
\headcommand {\beamer@framepages {54}{54}}
\headcommand {\slideentry {4}{5}{7}{55/55}{Iterative Improvement}{0}}
\headcommand {\beamer@framepages {55}{55}}
\headcommand {\slideentry {4}{5}{8}{56/56}{Iterative Improvement}{0}}
\headcommand {\beamer@framepages {56}{56}}
\headcommand {\slideentry {4}{5}{9}{57/57}{Iterative Improvement}{0}}
\headcommand {\beamer@framepages {57}{57}}
\headcommand {\slideentry {4}{5}{10}{58/58}{Iterative Improvement}{0}}
\headcommand {\beamer@framepages {58}{58}}
\headcommand {\slideentry {4}{5}{11}{59/59}{Iterative Improvement}{0}}
\headcommand {\beamer@framepages {59}{59}}
\headcommand {\beamer@subsectionentry {0}{4}{6}{60}{Special cases}}\headcommand {\beamer@subsectionpages {49}{59}}
\headcommand {\slideentry {4}{6}{1}{60/60}{Special cases}{0}}
\headcommand {\beamer@framepages {60}{60}}
\headcommand {\slideentry {4}{6}{2}{61/61}{Special cases}{0}}
\headcommand {\beamer@framepages {61}{61}}
\headcommand {\slideentry {4}{6}{3}{62/62}{Special cases}{0}}
\headcommand {\beamer@framepages {62}{62}}
\headcommand {\slideentry {4}{6}{4}{63/63}{Special cases}{0}}
\headcommand {\beamer@framepages {63}{63}}
\headcommand {\slideentry {4}{6}{5}{64/64}{Special cases}{0}}
\headcommand {\beamer@framepages {64}{64}}
\headcommand {\slideentry {4}{6}{6}{65/65}{Special cases}{0}}
\headcommand {\beamer@framepages {65}{65}}
\headcommand {\sectionentry {5}{Conclusion and Recommendations}{66}{Conclusion and Recommendations}{0}}
\headcommand {\beamer@sectionpages {10}{65}}
\headcommand {\beamer@subsectionpages {60}{65}}
\headcommand {\slideentry {5}{0}{1}{66/66}{}{0}}
\headcommand {\beamer@framepages {66}{66}}
\headcommand {\slideentry {5}{0}{2}{67/67}{}{0}}
\headcommand {\beamer@framepages {67}{67}}
\headcommand {\sectionentry {6}{Reflections}{68}{Reflections}{0}}
\headcommand {\beamer@sectionpages {66}{67}}
\headcommand {\beamer@subsectionpages {66}{67}}
\headcommand {\slideentry {6}{0}{1}{68/68}{}{0}}
\headcommand {\beamer@framepages {68}{68}}
\headcommand {\slideentry {6}{0}{2}{69/69}{}{0}}
\headcommand {\beamer@framepages {69}{69}}
\headcommand {\slideentry {6}{0}{3}{70/70}{}{0}}
\headcommand {\beamer@framepages {70}{70}}
\headcommand {\sectionentry {7}{\translate {Appendix}}{71}{\translate {Appendix}}{0}}
\headcommand {\beamer@sectionpages {68}{70}}
\headcommand {\beamer@subsectionpages {68}{70}}
\headcommand {\beamer@subsectionentry {0}{7}{1}{71}{For Further Reading}}\headcommand {\beamer@subsectionpages {71}{70}}
\headcommand {\slideentry {7}{1}{1}{71/71}{For Further Reading}{0}}
\headcommand {\beamer@framepages {71}{71}}
\headcommand {\beamer@partpages {1}{71}}
\headcommand {\beamer@subsectionpages {71}{71}}
\headcommand {\beamer@sectionpages {71}{71}}
\headcommand {\beamer@documentpages {71}}
\headcommand {\def \inserttotalframenumber {71}}
