{
	"sampleSize": 50,
	"maxElementValue": 1000,
	"data": [
		{
			"setLength": 10,
			"runtime": {
				"avg": 0.02,
				"lowest": 0,
				"highest": 1
			},
			"distance": {
				"avg": 68,
				"lowest": 0,
				"highest": 573
			}
		},
		{
			"setLength": 20,
			"runtime": {
				"avg": 0,
				"lowest": 0,
				"highest": 0
			},
			"distance": {
				"avg": 28,
				"lowest": 0,
				"highest": 129
			}
		},
		{
			"setLength": 30,
			"runtime": {
				"avg": 0.12,
				"lowest": 0,
				"highest": 6
			},
			"distance": {
				"avg": 16,
				"lowest": 0,
				"highest": 124
			}
		},
		{
			"setLength": 40,
			"runtime": {
				"avg": 0.06,
				"lowest": 0,
				"highest": 1
			},
			"distance": {
				"avg": 17,
				"lowest": 0,
				"highest": 336
			}
		},
		{
			"setLength": 50,
			"runtime": {
				"avg": 0,
				"lowest": 0,
				"highest": 0
			},
			"distance": {
				"avg": 10,
				"lowest": 0,
				"highest": 63
			}
		},
		{
			"setLength": 60,
			"runtime": {
				"avg": 0.04,
				"lowest": 0,
				"highest": 1
			},
			"distance": {
				"avg": 11,
				"lowest": 0,
				"highest": 243
			}
		},
		{
			"setLength": 70,
			"runtime": {
				"avg": 0.1,
				"lowest": 0,
				"highest": 1
			},
			"distance": {
				"avg": 5,
				"lowest": 0,
				"highest": 20
			}
		},
		{
			"setLength": 80,
			"runtime": {
				"avg": 0.04,
				"lowest": 0,
				"highest": 1
			},
			"distance": {
				"avg": 4,
				"lowest": 0,
				"highest": 23
			}
		},
		{
			"setLength": 90,
			"runtime": {
				"avg": 0.1,
				"lowest": 0,
				"highest": 1
			},
			"distance": {
				"avg": 21,
				"lowest": 0,
				"highest": 800
			}
		},
		{
			"setLength": 100,
			"runtime": {
				"avg": 0.04,
				"lowest": 0,
				"highest": 1
			},
			"distance": {
				"avg": 4,
				"lowest": 0,
				"highest": 33
			}
		},
		{
			"setLength": 110,
			"runtime": {
				"avg": 0.06,
				"lowest": 0,
				"highest": 1
			},
			"distance": {
				"avg": 8,
				"lowest": 0,
				"highest": 214
			}
		},
		{
			"setLength": 120,
			"runtime": {
				"avg": 0.12,
				"lowest": 0,
				"highest": 1
			},
			"distance": {
				"avg": 29,
				"lowest": 0,
				"highest": 1304
			}
		},
		{
			"setLength": 130,
			"runtime": {
				"avg": 0.18,
				"lowest": 0,
				"highest": 1
			},
			"distance": {
				"avg": 19,
				"lowest": 0,
				"highest": 809
			}
		},
		{
			"setLength": 140,
			"runtime": {
				"avg": 0.12,
				"lowest": 0,
				"highest": 1
			},
			"distance": {
				"avg": 3,
				"lowest": 0,
				"highest": 15
			}
		},
		{
			"setLength": 150,
			"runtime": {
				"avg": 0.24,
				"lowest": 0,
				"highest": 1
			},
			"distance": {
				"avg": 3,
				"lowest": 0,
				"highest": 13
			}
		},
		{
			"setLength": 160,
			"runtime": {
				"avg": 0.2,
				"lowest": 0,
				"highest": 1
			},
			"distance": {
				"avg": 16,
				"lowest": 0,
				"highest": 689
			}
		},
		{
			"setLength": 170,
			"runtime": {
				"avg": 0.24,
				"lowest": 0,
				"highest": 1
			},
			"distance": {
				"avg": 3,
				"lowest": 0,
				"highest": 19
			}
		},
		{
			"setLength": 180,
			"runtime": {
				"avg": 0.22,
				"lowest": 0,
				"highest": 1
			},
			"distance": {
				"avg": 3,
				"lowest": 0,
				"highest": 14
			}
		},
		{
			"setLength": 190,
			"runtime": {
				"avg": 0.28,
				"lowest": 0,
				"highest": 1
			},
			"distance": {
				"avg": 6,
				"lowest": 0,
				"highest": 169
			}
		},
		{
			"setLength": 200,
			"runtime": {
				"avg": 0.38,
				"lowest": 0,
				"highest": 1
			},
			"distance": {
				"avg": 2,
				"lowest": 0,
				"highest": 13
			}
		},
		{
			"setLength": 210,
			"runtime": {
				"avg": 0.32,
				"lowest": 0,
				"highest": 1
			},
			"distance": {
				"avg": 1,
				"lowest": 0,
				"highest": 9
			}
		},
		{
			"setLength": 220,
			"runtime": {
				"avg": 0.36,
				"lowest": 0,
				"highest": 1
			},
			"distance": {
				"avg": 2,
				"lowest": 0,
				"highest": 10
			}
		},
		{
			"setLength": 230,
			"runtime": {
				"avg": 0.3,
				"lowest": 0,
				"highest": 1
			},
			"distance": {
				"avg": 3,
				"lowest": 0,
				"highest": 48
			}
		},
		{
			"setLength": 240,
			"runtime": {
				"avg": 0.46,
				"lowest": 0,
				"highest": 1
			},
			"distance": {
				"avg": 1,
				"lowest": 0,
				"highest": 10
			}
		},
		{
			"setLength": 250,
			"runtime": {
				"avg": 0.52,
				"lowest": 0,
				"highest": 1
			},
			"distance": {
				"avg": 1,
				"lowest": 0,
				"highest": 7
			}
		},
		{
			"setLength": 260,
			"runtime": {
				"avg": 0.46,
				"lowest": 0,
				"highest": 1
			},
			"distance": {
				"avg": 2,
				"lowest": 0,
				"highest": 13
			}
		},
		{
			"setLength": 270,
			"runtime": {
				"avg": 0.62,
				"lowest": 0,
				"highest": 1
			},
			"distance": {
				"avg": 2,
				"lowest": 0,
				"highest": 9
			}
		},
		{
			"setLength": 280,
			"runtime": {
				"avg": 0.58,
				"lowest": 0,
				"highest": 2
			},
			"distance": {
				"avg": 1,
				"lowest": 0,
				"highest": 7
			}
		},
		{
			"setLength": 290,
			"runtime": {
				"avg": 0.46,
				"lowest": 0,
				"highest": 2
			},
			"distance": {
				"avg": 1,
				"lowest": 0,
				"highest": 7
			}
		},
		{
			"setLength": 300,
			"runtime": {
				"avg": 0.5,
				"lowest": 0,
				"highest": 1
			},
			"distance": {
				"avg": 1,
				"lowest": 0,
				"highest": 5
			}
		},
		{
			"setLength": 310,
			"runtime": {
				"avg": 0.64,
				"lowest": 0,
				"highest": 2
			},
			"distance": {
				"avg": 1,
				"lowest": 0,
				"highest": 9
			}
		},
		{
			"setLength": 320,
			"runtime": {
				"avg": 0.64,
				"lowest": 0,
				"highest": 2
			},
			"distance": {
				"avg": 1,
				"lowest": 0,
				"highest": 5
			}
		},
		{
			"setLength": 330,
			"runtime": {
				"avg": 0.82,
				"lowest": 0,
				"highest": 2
			},
			"distance": {
				"avg": 1,
				"lowest": 0,
				"highest": 5
			}
		},
		{
			"setLength": 340,
			"runtime": {
				"avg": 0.8,
				"lowest": 0,
				"highest": 2
			},
			"distance": {
				"avg": 1,
				"lowest": 0,
				"highest": 4
			}
		},
		{
			"setLength": 350,
			"runtime": {
				"avg": 0.84,
				"lowest": 0,
				"highest": 2
			},
			"distance": {
				"avg": 1,
				"lowest": 0,
				"highest": 10
			}
		},
		{
			"setLength": 360,
			"runtime": {
				"avg": 0.78,
				"lowest": 0,
				"highest": 2
			},
			"distance": {
				"avg": 1,
				"lowest": 0,
				"highest": 5
			}
		},
		{
			"setLength": 370,
			"runtime": {
				"avg": 0.94,
				"lowest": 0,
				"highest": 2
			},
			"distance": {
				"avg": 1,
				"lowest": 0,
				"highest": 8
			}
		},
		{
			"setLength": 380,
			"runtime": {
				"avg": 0.94,
				"lowest": 0,
				"highest": 2
			},
			"distance": {
				"avg": 1,
				"lowest": 0,
				"highest": 5
			}
		},
		{
			"setLength": 490,
			"runtime": {
				"avg": 1.5,
				"lowest": 0,
				"highest": 4
			},
			"distance": {
				"avg": 1,
				"lowest": 0,
				"highest": 7
			}
		},
		{
			"setLength": 500,
			"runtime": {
				"avg": 1.7,
				"lowest": 0,
				"highest": 3
			},
			"distance": {
				"avg": 1,
				"lowest": 0,
				"highest": 3
			}
		}
	]
}