{
	"sampleSize": 50,
	"maxElementValue": 10000,
	"data": [
		{
			"setLength": 10,
			"runtime": {
				"avg": 0.06,
				"lowest": 0,
				"highest": 1
			},
			"distance": {
				"avg": null,
				"lowest": -9959,
				"highest": 5779
			}
		},
		{
			"setLength": 20,
			"runtime": {
				"avg": 0,
				"lowest": 0,
				"highest": 0
			},
			"distance": {
				"avg": 746,
				"lowest": -2675,
				"highest": 5639
			}
		},
		{
			"setLength": 30,
			"runtime": {
				"avg": 0.02,
				"lowest": 0,
				"highest": 1
			},
			"distance": {
				"avg": 699,
				"lowest": -3955,
				"highest": 4761
			}
		},
		{
			"setLength": 40,
			"runtime": {
				"avg": 0,
				"lowest": 0,
				"highest": 0
			},
			"distance": {
				"avg": 539,
				"lowest": -4379,
				"highest": 3364
			}
		},
		{
			"setLength": 50,
			"runtime": {
				"avg": 0.02,
				"lowest": 0,
				"highest": 1
			},
			"distance": {
				"avg": 284,
				"lowest": -2886,
				"highest": 2774
			}
		},
		{
			"setLength": 100,
			"runtime": {
				"avg": 0.06,
				"lowest": 0,
				"highest": 1
			},
			"distance": {
				"avg": 422,
				"lowest": 6,
				"highest": 2588
			}
		},
		{
			"setLength": 200,
			"runtime": {
				"avg": 0.06,
				"lowest": 0,
				"highest": 1
			},
			"distance": {
				"avg": 200,
				"lowest": 0,
				"highest": 2017
			}
		},
		{
			"setLength": 500,
			"runtime": {
				"avg": 0.34,
				"lowest": 0,
				"highest": 2
			},
			"distance": {
				"avg": 71,
				"lowest": 1,
				"highest": 543
			}
		},
		{
			"setLength": 1000,
			"runtime": {
				"avg": 0.72,
				"lowest": 0,
				"highest": 1
			},
			"distance": {
				"avg": 96,
				"lowest": 0,
				"highest": 2894
			}
		},
		{
			"setLength": 1500,
			"runtime": {
				"avg": 1.06,
				"lowest": 0,
				"highest": 2
			},
			"distance": {
				"avg": 84,
				"lowest": 0,
				"highest": 1425
			}
		},
		{
			"setLength": 2000,
			"runtime": {
				"avg": 1.34,
				"lowest": 1,
				"highest": 3
			},
			"distance": {
				"avg": 21,
				"lowest": 0,
				"highest": 331
			}
		},
		{
			"setLength": 2500,
			"runtime": {
				"avg": 1.74,
				"lowest": 1,
				"highest": 4
			},
			"distance": {
				"avg": 61,
				"lowest": 0,
				"highest": 2583
			}
		},
		{
			"setLength": 3000,
			"runtime": {
				"avg": 2.16,
				"lowest": 1,
				"highest": 4
			},
			"distance": {
				"avg": 40,
				"lowest": 0,
				"highest": 1611
			}
		},
		{
			"setLength": 3500,
			"runtime": {
				"avg": 2.52,
				"lowest": 1,
				"highest": 4
			},
			"distance": {
				"avg": 11,
				"lowest": 0,
				"highest": 168
			}
		},
		{
			"setLength": 4000,
			"runtime": {
				"avg": 2.88,
				"lowest": 1,
				"highest": 5
			},
			"distance": {
				"avg": 98,
				"lowest": 0,
				"highest": 3000
			}
		},
		{
			"setLength": 4500,
			"runtime": {
				"avg": 3.58,
				"lowest": 2,
				"highest": 6
			},
			"distance": {
				"avg": 7,
				"lowest": 0,
				"highest": 65
			}
		},
		{
			"setLength": 5000,
			"runtime": {
				"avg": 4.02,
				"lowest": 2,
				"highest": 9
			},
			"distance": {
				"avg": 10,
				"lowest": 0,
				"highest": 222
			}
		},
		{
			"setLength": 5500,
			"runtime": {
				"avg": 4.32,
				"lowest": 3,
				"highest": 7
			},
			"distance": {
				"avg": 13,
				"lowest": 0,
				"highest": 169
			}
		},
		{
			"setLength": 6000,
			"runtime": {
				"avg": 5.5,
				"lowest": 2,
				"highest": 11
			},
			"distance": {
				"avg": 10,
				"lowest": 0,
				"highest": 96
			}
		},
		{
			"setLength": 6500,
			"runtime": {
				"avg": 5.68,
				"lowest": 3,
				"highest": 9
			},
			"distance": {
				"avg": 5,
				"lowest": 0,
				"highest": 47
			}
		},
		{
			"setLength": 7000,
			"runtime": {
				"avg": 5.86,
				"lowest": 3,
				"highest": 12
			},
			"distance": {
				"avg": 7,
				"lowest": 0,
				"highest": 188
			}
		},
		{
			"setLength": 7500,
			"runtime": {
				"avg": 6.28,
				"lowest": 3,
				"highest": 9
			},
			"distance": {
				"avg": 4,
				"lowest": 0,
				"highest": 41
			}
		},
		{
			"setLength": 8000,
			"runtime": {
				"avg": 7.26,
				"lowest": 4,
				"highest": 15
			},
			"distance": {
				"avg": 4,
				"lowest": 0,
				"highest": 48
			}
		},
		{
			"setLength": 8500,
			"runtime": {
				"avg": 8.34,
				"lowest": 4,
				"highest": 16
			},
			"distance": {
				"avg": 24,
				"lowest": 0,
				"highest": 1020
			}
		},
		{
			"setLength": 9000,
			"runtime": {
				"avg": 8.54,
				"lowest": 5,
				"highest": 12
			},
			"distance": {
				"avg": 13,
				"lowest": 0,
				"highest": 395
			}
		},
		{
			"setLength": 9500,
			"runtime": {
				"avg": 9.74,
				"lowest": 5,
				"highest": 18
			},
			"distance": {
				"avg": 7,
				"lowest": 0,
				"highest": 89
			}
		},
		{
			"setLength": 10000,
			"runtime": {
				"avg": 10.24,
				"lowest": 5,
				"highest": 17
			},
			"distance": {
				"avg": 6,
				"lowest": 0,
				"highest": 114
			}
		},
		{
			"setLength": 15000,
			"runtime": {
				"avg": 20.56,
				"lowest": 9,
				"highest": 137
			},
			"distance": {
				"avg": 3,
				"lowest": 0,
				"highest": 64
			}
		},
		{
			"setLength": 20000,
			"runtime": {
				"avg": 28.96,
				"lowest": 13,
				"highest": 42
			},
			"distance": {
				"avg": 4,
				"lowest": 0,
				"highest": 63
			}
		},
		{
			"setLength": 25000,
			"runtime": {
				"avg": 44.54,
				"lowest": 22,
				"highest": 59
			},
			"distance": {
				"avg": 2,
				"lowest": 0,
				"highest": 36
			}
		},
		{
			"setLength": 30000,
			"runtime": {
				"avg": 56.86,
				"lowest": 28,
				"highest": 82
			},
			"distance": {
				"avg": 3,
				"lowest": 0,
				"highest": 70
			}
		}
	]
}\resizebox{\columnwidth}{!}{%\begin{tabular}{| c | c | c | c |}\hline Set Length (n) & Avg. Distance from $t$ & Lowest Distance from $t$& Highest Distance from $t$ \\ \hline10 & NaN & -9959 & 5779 \\ \hline20 & 746 & -2675 & 5639 \\ \hline30 & 699 & -3955 & 4761 \\ \hline40 & 539 & -4379 & 3364 \\ \hline50 & 284 & -2886 & 2774 \\ \hline100 & 422 & 6 & 2588 \\ \hline200 & 200 & 0 & 2017 \\ \hline500 & 71 & 1 & 543 \\ \hline1000 & 96 & 0 & 2894 \\ \hline1500 & 84 & 0 & 1425 \\ \hline2000 & 21 & 0 & 331 \\ \hline2500 & 61 & 0 & 2583 \\ \hline3000 & 40 & 0 & 1611 \\ \hline3500 & 11 & 0 & 168 \\ \hline4000 & 98 & 0 & 3000 \\ \hline4500 & 7 & 0 & 65 \\ \hline5000 & 10 & 0 & 222 \\ \hline5500 & 13 & 0 & 169 \\ \hline6000 & 10 & 0 & 96 \\ \hline6500 & 5 & 0 & 47 \\ \hline7000 & 7 & 0 & 188 \\ \hline7500 & 4 & 0 & 41 \\ \hline8000 & 4 & 0 & 48 \\ \hline8500 & 24 & 0 & 1020 \\ \hline9000 & 13 & 0 & 395 \\ \hline9500 & 7 & 0 & 89 \\ \hline10000 & 6 & 0 & 114 \\ \hline15000 & 3 & 0 & 64 \\ \hline20000 & 4 & 0 & 63 \\ \hline25000 & 2 & 0 & 36 \\ \hline30000 & 3 & 0 & 70 \\ \hline\end{tabular}}\resizebox{\columnwidth}{!}{%\begin{tabular}{| c | c | c | c |}\hline Set Length (n) & Avg. Time-Elapsed & Lowest Time-Elapsed& Highest Time-Elapsed \\ \hline10 & 0.06 & 0 & 1 \\ \hline20 & 0 & 0 & 0 \\ \hline30 & 0.02 & 0 & 1 \\ \hline40 & 0 & 0 & 0 \\ \hline50 & 0.02 & 0 & 1 \\ \hline100 & 0.06 & 0 & 1 \\ \hline200 & 0.06 & 0 & 1 \\ \hline500 & 0.34 & 0 & 2 \\ \hline1000 & 0.72 & 0 & 1 \\ \hline1500 & 1.06 & 0 & 2 \\ \hline2000 & 1.34 & 1 & 3 \\ \hline2500 & 1.74 & 1 & 4 \\ \hline3000 & 2.16 & 1 & 4 \\ \hline3500 & 2.52 & 1 & 4 \\ \hline4000 & 2.88 & 1 & 5 \\ \hline4500 & 3.58 & 2 & 6 \\ \hline5000 & 4.02 & 2 & 9 \\ \hline5500 & 4.32 & 3 & 7 \\ \hline6000 & 5.5 & 2 & 11 \\ \hline6500 & 5.68 & 3 & 9 \\ \hline7000 & 5.86 & 3 & 12 \\ \hline7500 & 6.28 & 3 & 9 \\ \hline8000 & 7.26 & 4 & 15 \\ \hline8500 & 8.34 & 4 & 16 \\ \hline9000 & 8.54 & 5 & 12 \\ \hline9500 & 9.74 & 5 & 18 \\ \hline10000 & 10.24 & 5 & 17 \\ \hline15000 & 20.56 & 9 & 137 \\ \hline20000 & 28.96 & 13 & 42 \\ \hline25000 & 44.54 & 22 & 59 \\ \hline30000 & 56.86 & 28 & 82 \\ \hline\end{tabular}}