{
	"sampleSize": 50,
	"maxElementValue": 1000,
	"data": [
		{
			"x": 10,
			"y": 5.52,
			"min": 0,
			"max": 12
		},
		{
			"x": 20,
			"y": 16.2,
			"min": 2,
			"max": 37
		},
		{
			"x": 30,
			"y": 32.22,
			"min": 4,
			"max": 85
		},
		{
			"x": 40,
			"y": 55.7,
			"min": 3,
			"max": 126
		},
		{
			"x": 50,
			"y": 102.4,
			"min": 6,
			"max": 219
		},
		{
			"x": 60,
			"y": 127.3,
			"min": 1,
			"max": 297
		},
		{
			"x": 70,
			"y": 178.52,
			"min": 16,
			"max": 434
		},
		{
			"x": 80,
			"y": 261.34,
			"min": 32,
			"max": 636
		},
		{
			"x": 90,
			"y": 304.52,
			"min": 13,
			"max": 764
		},
		{
			"x": 100,
			"y": 457.64,
			"min": 38,
			"max": 1056
		},
		{
			"x": 110,
			"y": 585.42,
			"min": 18,
			"max": 1290
		},
		{
			"x": 120,
			"y": 584.9,
			"min": 13,
			"max": 1367
		},
		{
			"x": 130,
			"y": 601.66,
			"min": 13,
			"max": 1673
		},
		{
			"x": 140,
			"y": 726.74,
			"min": 6,
			"max": 1635
		},
		{
			"x": 150,
			"y": 748.58,
			"min": 30,
			"max": 1776
		},
		{
			"x": 160,
			"y": 1115.14,
			"min": 121,
			"max": 2386
		},
		{
			"x": 170,
			"y": 1069.36,
			"min": 15,
			"max": 2713
		},
		{
			"x": 180,
			"y": 1430.52,
			"min": 18,
			"max": 3813
		},
		{
			"x": 190,
			"y": 1493.1,
			"min": 52,
			"max": 3072
		},
		{
			"x": 200,
			"y": 1756.22,
			"min": 60,
			"max": 3973
		}
	]
}